C:\Users\diogo\OneDrive\Documentos\1dn_tp3_1181180_1181178\TP3\src\test\java\tp3\model\ListaColaboradorTest.java
C:\Users\diogo\OneDrive\Documentos\1dn_tp3_1181180_1181178\TP3\src\test\java\tp3\model\TarefaTest.java
C:\Users\diogo\OneDrive\Documentos\1dn_tp3_1181180_1181178\TP3\src\test\java\tp3\model\DataTest.java
C:\Users\diogo\OneDrive\Documentos\1dn_tp3_1181180_1181178\TP3\src\test\java\tp3\model\OrganizacaoTest.java
C:\Users\diogo\OneDrive\Documentos\1dn_tp3_1181180_1181178\TP3\src\test\java\tp3\model\AnuncioTest.java
C:\Users\diogo\OneDrive\Documentos\1dn_tp3_1181180_1181178\TP3\src\test\java\tp3\model\ProcessoSeriacaoTest.java
C:\Users\diogo\OneDrive\Documentos\1dn_tp3_1181180_1181178\TP3\src\test\java\tp3\model\RegistoTipoRegimentoTest.java
C:\Users\diogo\OneDrive\Documentos\1dn_tp3_1181180_1181178\TP3\src\test\java\tp3\model\ListaCandidaturaTest.java
C:\Users\diogo\OneDrive\Documentos\1dn_tp3_1181180_1181178\TP3\src\test\java\tp3\model\LerFicheiroTest.java
C:\Users\diogo\OneDrive\Documentos\1dn_tp3_1181180_1181178\TP3\src\test\java\tp3\model\CategoriaTest.java
C:\Users\diogo\OneDrive\Documentos\1dn_tp3_1181180_1181178\TP3\src\test\java\tp3\model\AreaAtividadeTest.java
C:\Users\diogo\OneDrive\Documentos\1dn_tp3_1181180_1181178\TP3\src\test\java\tp3\model\CaraterCTTest.java
C:\Users\diogo\OneDrive\Documentos\1dn_tp3_1181180_1181178\TP3\src\test\java\tp3\model\FreelancerTest.java
C:\Users\diogo\OneDrive\Documentos\1dn_tp3_1181180_1181178\TP3\src\test\java\tp3\model\RegistoAnuncioTest.java
